…
## Finding 5: Sentiment analysis of titles

I used the NRC Word-Emotion Association Lexicon (C) to conduct sentiment analysis on post titles. Posts contain more positive words than negative words. Other common emotions in post titles are "trust", "anticipation", and "fear". Sentiment analysis showed similar results for all 3 time periods.


```r
# sentiment analysis

get_sentiments("nrc")
```

```
## # A tibble: 13,872 × 2
##    word        sentiment
##    <chr>       <chr>    
##  1 abacus      trust    
##  2 abandon     fear     
##  3 abandon     negative 
##  4 abandon     sadness  
##  5 abandoned   anger    
##  6 abandoned   fear     
##  7 abandoned   negative 
##  8 abandoned   sadness  
##  9 abandonment anger    
## 10 abandonment fear     
## # … with 13,862 more rows
```
…
